Step,ObjectName,Description,Action,Input,Condition,Reference
1,Athena,"Click the [<Object>] ",ClickIfVisible,,,DashboardPage
2,Saved queries1,"Click the [<Object>] ",Click,,,Query
3,Search saved queries,"Click the [<Object>] ",Click,,,Query
4,Browser,Wait for [<Data>] milli seconds,pause,@2000,,
"//5",Contact_TableName,"Click the [<Object>] ",clickByJS,,,Query
