Step,ObjectName,Description,Action,Input,Condition,Reference
1,FirstResult,"Click the [<Object>] ",Click,,,Query
2,database_dropdown,"Click the [<Object>] ",Click,,,Query
3,InputDBNAME,Enter the value [<Data>] in the Field [<Object>],Set,AWS:db,,AWSQUERY
4,Browser,Wait for [<Data>] milli seconds,pause,@5000,,
5,clickdrop,[<Object>] image is clicked,imgWait,,,img
6,clickdrop,[<Object>] image is clicked,imgClick,,,img
7,Run,"Click the [<Object>] ",clickByJS,,,AWSQUERY
8,Browser,Wait for [<Data>] milli seconds,pause,@5000,,
