Step,ObjectName,Description,Action,Input,Condition,Reference
1,Execute,,DataBase Testing:Login,,,
2,Execute,,flow:Navigate to saved queries,,,
"*3",Search saved queries1,Enter the value [<Data>] in the Field [<Object>],Set,AWS:Query,,Query
4,Execute,,flow:Processing Result,,,
5,Actual result,print the data [<Data>],storeTextinDataSheet,AWS:Actual result,,WPage0
6,Browser,print the data [<Data>],print,AWS:Actual result,,
"//7",Provider_Results,Assert if [<Object>]'s Text Contains [<Data>],assertElementTextContains,AWS:Expected Result,,Query
8,Browser,"Take a Screen Shot ",takeScreenshot,,,
9,Execute,,DataBase Testing:LogOut,,,
