Step,ObjectName,Description,Action,Input,Condition,Reference
1,Execute,,Connection to DB:MDM_Connection,,,
2,Database,"Query and save the result in Datasheet ",storeResultInDataSheetCustom,@select Count(PROVIDER_ID)AS MDM_PROVIDERID from  MDM_PROVIDER_STG,AVMDM_PROVIDER_TABLE_COUNT,
3,Database,Close the DB Connection,closeDBConnection,,,
4,Execute,,Connection to DB:PDA_Connection,,,
5,Database,"Query and save the result in Datasheet ",storeResultInDataSheetCustom,@select Count(PROVIDER_ID)AS AVMDM_PROVIDERID from   MDM_PROVIDER,AVMDM_PROVIDER_TABLE_COUNT,
6,Database,Close the DB Connection,closeDBConnection,,,
7,Browser,Add a variable to access within testcase,AddVar,AVMDM_PROVIDER_TABLE_COUNT:MDM_PROVIDERID,MDM_PROVIDERID_COUNT,
8,Browser,Assert if  the  variable value matches with given value from datasheet(variable:datasheet->  [<Data>] ),assertVariableFromDataSheet,AVMDM_PROVIDER_TABLE_COUNT:AVMDM_PROVIDERID,MDM_PROVIDERID_COUNT,
