Step,ObjectName,Description,Action,Input,Condition,Reference
1,Execute,,Connection to DB:MDM_Connection,,,
2,Database,"Query and save the result in Datasheet ",storeResultInDataSheetCustom,@select provider_id AS MDM_PROVIDER_ID from MDM_PROVIDER_STG,AVMDM_MDM_PROVIDERID,
3,Database,Close the DB Connection,closeDBConnection,,,
4,Execute,,Connection to DB:AVMDM _Connection,,,
5,Database,"Query and save the result in Datasheet ",storeResultInDataSheetCustom,@select provider_id AS AVMDM_PROVIDER_ID from MDM_PROVIDER,AVMDM_MDM_PROVIDERID,
6,Database,Close the DB Connection,closeDBConnection,,,
7,Browser,Add a variable to access within testcase,print,@NEW RECORD VALIDATION,Start Param,
8,Browser,Add a variable to access within testcase,AddVar,AVMDM_MDM_PROVIDERID:MDM_PROVIDER_ID,MDMPROVIDERID,
9,Browser,Assert if  the  variable value matches with given value from datasheet(variable:datasheet->  [<Data>] ),assertVariableFromDataSheet,AVMDM_MDM_PROVIDERID:AVMDM_PROVIDER_ID,MDMPROVIDERID,
10,Browser,print the data [<Data>],print,@END OF RECORD,End Param,
