Step,ObjectName,Description,Action,Input,Condition,Reference
1,Execute,,Connection to DB:PDA_Connection,,,
2,Database,"Query and save the result in Datasheet ",storeResultInDataSheetCustom,@SELECT column_name FROM sys.all_tab_cols  WHERE  table_name = 'PDA_PYR_PVDR_STG'  ORDER BY COLUMN_NAME ASC,PDA_PYR_PVDR_STG_COLOUMN,
3,Database,Close the DB Connection,closeDBConnection,,,
4,Browser,print the data [<Data>],print,@New Record Validation Started,Start Param,
5,Browser,Add a variable to access within testcase,AddVar,PDA_PYR_PVDR_STG_COLOUMN:COLUMN_NAME,Column_Name,
6,Browser,Assert if  the  variable value matches with given value from datasheet(variable:datasheet->  [<Data>] ),assertVariableFromDataSheet,PDA_PYR_PVDR_STG_COLOUMN:Expected Column,Column_Name,
7,Browser,print the data [<Data>],print,@Record Validation Completed,End Param,
