Scenario,Flow,Iteration,SubIteration,MDM_PROVIDER_ID,MDM_PROVIDER_TYPE,AVMDM_PROVIDER_ID,AVMDM_PROVIDER_TYPE
QG4 - MDM_STG to AVMDM,TC_4.7 To verify that PROVIDER_TYPE and PROVIDER_ID of MDM_PROVIDER with PROVIDER_TYPE of MDM_PROVIDER_STG if PROVIDER_TYPE is 'BUSINESS',1,1,452056186,BUSINESS,452056186,BUSINESS
QG4 - MDM_STG to AVMDM,TC_4.7 To verify that PROVIDER_TYPE and PROVIDER_ID of MDM_PROVIDER with PROVIDER_TYPE of MDM_PROVIDER_STG if PROVIDER_TYPE is 'BUSINESS',1,2,452666541,BUSINESS,452666541,BUSINESS
QG4 - MDM_STG to AVMDM,TC_4.7 To verify that PROVIDER_TYPE and PROVIDER_ID of MDM_PROVIDER with PROVIDER_TYPE of MDM_PROVIDER_STG if PROVIDER_TYPE is 'BUSINESS',1,3,453599490,BUSINESS,453599490,BUSINESS
