Scenario,Flow,Iteration,SubIteration,MDM_PROVIDER_ID,AVMDM_PROVIDER_ID
QG4 - MDM_STG to AVMDM,TC_4.8 Verify the  PROVIDER_ID Data of MDM_PROVIDER  with  PROVIDER_ID data of MDM_PROVIDER_STG,1,1,452056186,452056186
QG4 - MDM_STG to AVMDM,TC_4.8 Verify the  PROVIDER_ID Data of MDM_PROVIDER  with  PROVIDER_ID data of MDM_PROVIDER_STG,1,2,452666541,452666541
QG4 - MDM_STG to AVMDM,TC_4.8 Verify the  PROVIDER_ID Data of MDM_PROVIDER  with  PROVIDER_ID data of MDM_PROVIDER_STG,1,3,453599490,453599490
QG4 - MDM_STG to AVMDM,TC_4.8 Verify the  PROVIDER_ID Data of MDM_PROVIDER  with  PROVIDER_ID data of MDM_PROVIDER_STG,1,4,290670495,290670495
